Script Digital Marketing
…
Below theres a general overview about the number of clicks opening an email:

df6_dist_numopens<- campaign_event_clean_final %>%
  group_by(NUM_OPENs) %>%
  summarize(TOT_ID = n_distinct(ID_EVENT_S)) %>%
  mutate(PERCENT = TOT_ID/sum(TOT_ID)) %>%
  arrange(desc(PERCENT))

df6_dist_numopens

## # A tibble: 45 x 3
##    NUM_OPENs  TOT_ID  PERCENT
##        <int>   <int>    <dbl>
##  1        NA 1278264 0.821   
##  2         1  220900 0.142   
##  3         2   37877 0.0243  
##  4         3   11058 0.00710 
##  5         4    4002 0.00257 
##  6         5    1833 0.00118 
##  7         6    1028 0.000660
##  8         7     568 0.000365
##  9         8     326 0.000209
## 10         9     227 0.000146
## # ... with 35 more rows
…
